DECLARE
	a number;
BEGIN
	a:=1
	WHILE(a<=20)
	LOOP
		IF(mod[a,2]==0)
		then insert into Gokul_56 values ( a,"even");
		ELSE
		then insert into Gokul_56 values ( a,"odd");
		END IF;
		a:=a+1
	END LOOP;
END;
